<?xml version="1.0" encoding="utf-8"?>
<!-- Generator: Adobe Illustrator 23.0.5, SVG Export Plug-In . SVG Version: 6.00 Build 0)  -->
<svg version="1.1" id="Ebene_1" xmlns="http://www.w3.org/2000/svg" xmlns:xlink="http://www.w3.org/1999/xlink" x="0px" y="0px"
	 viewBox="0 0 24 24" style="enable-background:new 0 0 24 24;" xml:space="preserve">
<style type="text/css">
	.st0{fill:none;stroke:#000000;stroke-linecap:round;stroke-linejoin:round;}
</style>
<line class="st0" x1="16.9" y1="9.1" x2="7.1" y2="3.5"/>
<path class="st0" d="M21.9,16.4V7.6c0-0.8-0.4-1.5-1.1-1.9l-7.7-4.4c-0.7-0.4-1.5-0.4-2.2,0L3.2,5.7C2.6,6.1,2.1,6.8,2.1,7.6v8.8
	c0,0.8,0.4,1.5,1.1,1.9l7.7,4.4c0.7,0.4,1.5,0.4,2.2,0l7.7-4.4C21.4,17.9,21.9,17.2,21.9,16.4z"/>
<polyline class="st0" points="2.4,6.5 12,12 21.6,6.5 "/>
<line class="st0" x1="12" y1="23" x2="12" y2="12"/>
</svg>
